name,label_fr,variety_request,variety,surface_type,season,precision,sowed-after,production_family,usage
CML,Cameline,is camelina_sativa,camelina_sativa,TA,,,,oilseed_crops,grain
CZH,Colza d’hiver,is brassica_napus_napus,brassica_napus_napus,TA,winter,,,rapeseed_crops,grain
CZP,Colza de printemps,is brassica_napus_annua,brassica_napus_annua,TA,spring,,,rapeseed_crops,grain
LIH,Lin non textile d’hiver,is linum_usitatissimum_napus,linum_usitatissimum_napus,TA,winter,,,flax_crops,grain
LIP,Lin non textile de printemps,is linum_usitatissimum_annua,linum_usitatissimum_annua,TA,spring,,,flax_crops,grain
MOT,Moutarde,is brassica_nigra,brassica_nigra,TA,,,,oilseed_crops,grain
NVE,Navette d’été,is brassica_rapa_annua,brassica_rapa_annua,TA,summer,,,oilseed_crops,grain
NVH,Navette d’hiver,is brassica_rapa_biennis,brassica_rapa_biennis,TA,winter,,,oilseed_crops,grain
NYG,Nyger,is guizotia_abyssinica,guizotia_abyssinica,TA,,,,oilseed_crops,grain
OEI,Œillette,is papaver_somniferum,papaver_somniferum,TA,,,,oilseed_crops,grain
SOJ,Soja,is glycine_max,glycine_max,TA,,,,soybean_crops,grain
TRN,Tournesol,is helianthus_annuus,helianthus_annuus,TA,,,,sunflower_crops,grain
OHN,Autre oléagineux d’hiver d’espèce Brassica napus,is brassica_napus and isn't brassica_napus_napus,brassica_napus,TA,winter,,,oilseed_crops,grain
OHR,Autre oléagineux d’hiver d’espèce Brassica rapa,is brassica_rapa and isn't brassica_napus_napus,brassica_rapa,TA,winter,,,oilseed_crops,grain
OPN,Autre oléagineux de printemps d’espèce Brassica napus,is brassica_napus and isn't brassica_napus_annua,brassica_napus,TA,spring,,,oilseed_crops,grain
OPR,Autre oléagineux de printemps d’espèce Brassica rapa,is brassica_rapa and isn't brassica_napus_annua,brassica_rapa,TA,spring,,,oilseed_crops,grain
OEH,Autre oléagineux d’espèce Helianthus,is helianthus isn't helianthus,helianthus,TA,,,,oilseed_crops,grain
OAG,Autre oléagineux d’un autre genre,is plant,plant,TA,,,,oilseed_crops,grain
MOL,Mélange d’oléagineux,MIXED,plant,TA,,2-03-mixing_types,,oilseed_crops,grain
