name,label_fr,variety_request,variety,surface_type,season,precision,sowed-after,production_family,usage
CHV,Chanvre,is cannabis,cannabis,TA,,2-11-cannabis_varieties,,field_crops,fiber
LIF,Lin fibres,is linum,linum,TA,,,,flax_crops,fiber
