name,label_fr,variety_request,variety,surface_type,season,precision,transformation,production_family,usage
AGR,Agrume,is citrus or is fortunella or is microcitrus or is eremocitrus or is poncirus,citrus,CP,,,,,
CAB,Caroube,is ceratonia_siliqua,ceratonia_siliqua,CP,,,,,
CBT,Cerise bigarreau pour transformation,is prunus_cerasus,prunus_cerasus,CP,,,true,,
CTG,Châtaigne,is castanea,castanea,CP,,2-12-chesnut_varieties,,,
NOS,Noisette,is corylus,corylus,CP,,,,hazel_orchards,fruit
NOX,Noix,is juglans,juglans,CP,,,,walnut_orchards,fruit
OLI,Oliveraie,is olea_europaea,olea_europaea,CP,,2-19-olive_tree_varieties,,olive_groves,fruit
PVT,Pêche Pavie pour transformation,is prunus_persica_pavie,prunus_persica_pavie,CP,,,true,,
PEP,Pépinière,is plant,plant,CP,,,,,
PFR,Petit fruit rouge,is plant,plant,CP,,,,,
PIS,Pistache,is pistacia_vera,pistacia_vera,CP,,,,,
PWT,Poire Williams pour transformation,is pyrus_communis,pyrus_communis,CP,,,true,,
PRU,Prune d’Ente pour transformation,is prunus_domestica,prunus_domestica,CP,,,true,,
VRG,Autres vergers,is plant,plant,CP,,2-22-orchard_varieties,,arboriculture,fruit
VRC,Vigne : raisins de cuve en production,is vitaceae,vitaceae,CP,,,,vines,fruit
VRT,Vigne : raisins de table,is vitaceae,vitaceae,CP,,,,vines,fruit
VRN,Vigne : raisins de cuve non en production,is vitaceae,vitaceae,CP,,,,vines,fruit
RVI,Restructuration du vignoble,is vitaceae,vitaceae,CP,,,,vines,fruit
