code,label_fr,variety_request,variety,PRV
001,Variété sans mesure PRV,is allium_sativum,allium_sativum,false
002,Ail du Nord,is allium_sativum_nord,allium_sativum_nord,true
003,Ail Gayant,is allium_sativum_gayant,allium_sativum_gayant,true
999,Autre variété avec mesure PRV,is allium_sativum,allium_sativum,true
