code,label_fr,variety_request,variety,PRV
1,Variété sans mesure PRV,is triticum_aestivum,triticum_aestivum,false
2,Alliès,is triticum_aestivum_allies,triticum_aestivum_allies,true
3,Automne rouge barbu,is triticum_aestivum_automne_rouge_barbu,triticum_aestivum_automne_rouge_barbu,true
4,Autrichien,is triticum_aestivum_autrichien,triticum_aestivum_autrichien,true
5,Blanc de Flandre,is triticum_aestivum_blanc_de_flandre,triticum_aestivum_blanc_de_flandre,true
6,Blé de Crépi,is triticum_aestivum_ble_de_crepi,triticum_aestivum_ble_de_crepi,true
7,Blé de Redon,is triticum_aestivum_ble_de_redon,triticum_aestivum_ble_de_redon,true
8,Bon fermier,is triticum_aestivum_bon_fermier,triticum_aestivum_bon_fermier,true
9,Bon moulin,is triticum_aestivum_bon_moulin,triticum_aestivum_bon_moulin,true
10,Bordier,is triticum_aestivum_bordier,triticum_aestivum_bordier,true
11,Champ Joli,is triticum_aestivum_champ_joli,triticum_aestivum_champ_joli,true
12,Chanteclair,is triticum_aestivum_chanteclair,triticum_aestivum_chanteclair,true
13,Chiddam d'automne blanc,is triticum_aestivum_chiddam_d_automne_blanc,triticum_aestivum_chiddam_d_automne_blanc,true
14,Chiddam d'automne rouge,is triticum_aestivum_chiddam_d_automne_rouge,triticum_aestivum_chiddam_d_automne_rouge,true
15,Côte d'or,is triticum_aestivum_cote_d_or,triticum_aestivum_cote_d_or,true
16,Dattel,is triticum_aestivum_dattel,triticum_aestivum_dattel,true
17,Flèche d'Or,is triticum_aestivum_fleche_d_or,triticum_aestivum_fleche_d_or,true
18,Gerbor,is triticum_aestivum_gerbor,triticum_aestivum_gerbor,true
19,Goldentrop (synonyme rouge d’Écosse),is triticum_aestivum_goldentrop,triticum_aestivum_goldentrop,true
20,Gros bleu,is triticum_aestivum_gros_bleu,triticum_aestivum_gros_bleu,true
21,Hâtif Cambier,is triticum_aestivum_hatif_cambier,triticum_aestivum_hatif_cambier,true
22,Hâtif de Wattines,is triticum_aestivum_hatif_de_wattines,triticum_aestivum_hatif_de_wattines,true
23,Hâtif inversable,is triticum_aestivum_hatif_inversable,triticum_aestivum_hatif_inversable,true
24,Hybride 40,is triticum_aestivum_hybride_40,triticum_aestivum_hybride_40,true
25,Hybride de Bersée,is triticum_aestivum_hybride_de_bersee,triticum_aestivum_hybride_de_bersee,true
26,Hybride de la paix,is triticum_aestivum_hybride_de_la_paix,triticum_aestivum_hybride_de_la_paix,true
27,Hybride du Trésor,is triticum_aestivum_hybride_du_tresor,triticum_aestivum_hybride_du_tresor,true
28,Ile de France,is triticum_aestivum_ile_de_france,triticum_aestivum_ile_de_france,true
29,Innovation Bataille,is triticum_aestivum_innovation_bataille,triticum_aestivum_innovation_bataille,true
30,Institut agronomique,is triticum_aestivum_institut_agronomique,triticum_aestivum_institut_agronomique,true
31,Japhet,is triticum_aestivum_japhet,triticum_aestivum_japhet,true
32,Later,is triticum_aestivum_later,triticum_aestivum_later,true
33,Noé,is triticum_aestivum_noe,triticum_aestivum_noe,true
34,Nord-Desprez,is triticum_aestivum_nord_desprez,triticum_aestivum_nord_desprez,true
35,Picardie-Desprez,is triticum_aestivum_picardie_desprez,triticum_aestivum_picardie_desprez,true
36,Poulard d'Australie,is triticum_aestivum_poulard_d_australie,triticum_aestivum_poulard_d_australie,true
37,Préparateur Étienne,is triticum_aestivum_preparateur_etienne,triticum_aestivum_preparateur_etienne,true
38,Prince Albert,is triticum_aestivum_prince_albert,triticum_aestivum_prince_albert,true
39,Providence,is triticum_aestivum_providence,triticum_aestivum_providence,true
40,Ptit quinquin,is triticum_aestivum_ptit_quinquin,triticum_aestivum_ptit_quinquin,true
41,Rouge d'Alsace (synonyme Rouge d’Altkirch),is triticum_aestivum_rouge_d_alsace,triticum_aestivum_rouge_d_alsace,true
42,Rouge de Bordeaux,is triticum_aestivum_rouge_de _bordeaux,triticum_aestivum_rouge_de _bordeaux,true
43,Roux des Ardennes,is triticum_aestivum_roux_des_ardennes,triticum_aestivum_roux_des_ardennes,true
44,Shireff à épis carrés (synonyme Shireff squarehead),is triticum_aestivum_shireff_epis_carres,triticum_aestivum_shireff_epis_carres,true
45,Teverson,is triticum_aestivum_teverson,triticum_aestivum_teverson,true
46,Victoria d'automne,is triticum_aestivum_victoria_d_automne,triticum_aestivum_victoria_d_automne,true
47,Vilmorin 23,is triticum_aestivum_vilmorin_23,triticum_aestivum_vilmorin_23,true
48,Vilmorin 27,is triticum_aestivum_vilmorin_27,triticum_aestivum_vilmorin_27,true
49,Vilmorin 29,is triticum_aestivum_vilmorin_29,triticum_aestivum_vilmorin_29,true
50,Wilson jaune,is triticum_aestivum_wilson_jaune,triticum_aestivum_wilson_jaune,true
51,YGA,is triticum_aestivum_yga,triticum_aestivum_yga,true
999,Autre variété avec mesure PRV,is triticum_aestivum,triticum_aestivum,true
