name,label_fr,variety_request,variety,surface_type,season,precision,sowed-after,production_family,usage
AVH,Avoine d’hiver,is avena_sativa,avena_sativa,TA,winter,,,oat_crops,grain
AVP,Avoine de printemps,is avena_sativa,avena_sativa,TA,spring,,,oat_crops,grain
BDH,Blé dur d’hiver,is triticum_durum,triticum_durum,TA,winter,2-08-durum_wheat_varieties,,durum_wheat_crops,grain
BDP,Blé dur de printemps,is triticum_durum,triticum_durum,TA,spring,2-08-durum_wheat_varieties,,durum_wheat_crops,grain
BDT,Blé dur de printemps semé tardivement (après le 31/05),is triticum_durum,triticum_durum,TA,spring,2-08-durum_wheat_varieties,31/05,durum_wheat_crops,grain
BTH,Blé tendre d’hiver,is triticum_aestivum,triticum_aestivum,TA,winter,2-09-common_wheat_varieties,,common_wheat_crops,grain
BTP,Blé tendre de printemps,is triticum_aestivum,triticum_aestivum,TA,spring,2-09-common_wheat_varieties,,common_wheat_crops,grain
EPE,Épeautre,is triticum_spelta,triticum_spelta,TA,,,,cereal_crops,grain
MID,Maïs doux,is zea_mays,zea_mays,TA,,,,maize_crops,grain
MIE,Maïs ensilage,is zea_mays,zea_mays,TA,,,,maize_crops,fodder
MIS,Maïs,is zea_mays,zea_mays,TA,,,,maize_crops,grain
MLT,Millet,is panicum_miliaceum,panicum_miliaceum,TA,,,,cereal_crops,grain
MOH,Moha,is setaria_italica,setaria_italica,TA,,,,cereal_crops,grain
ORH,Orge d'hiver,is hordeum_hexastichum,hordeum_hexastichum,TA,winter,,,barley_crops,grain
ORP,Orge de printemps,is hordeum_hexastichum,hordeum_hexastichum,TA,spring,,,barley_crops,grain
RIZ,Riz,is oryza_sativa,oryza_sativa,TA,,,,rice_crops,grain
SRS,Sarrasin,is fagopyrum_esculentum,fagopyrum_esculentum,TA,,,,cereal_crops,grain
SGH,Seigle d’hiver,is secale_cereale,secale_cereale,TA,winter,,,rye_crops,grain
SGP,Seigle de printemps,is secale_cereale,secale_cereale,TA,spring,,,rye_crops,grain
SOG,Sorgho,is sorghum,sorghum,TA,,,,sorghum_crops,grain
TTH,Triticale d’hiver,is triticosecale,triticosecale,TA,winter,,,triticale_crops,grain
TTP,Triticale de printemps,is triticosecale,triticosecale,TA,spring,,,triticale_crops,grain
CHA,Autre céréale d’hiver de genre Avena,is avena and isnt avena_sativa,avena,TA,winter,,,cereal_crops,grain
CHH,Autre céréale d’hiver de genre Hordeum,is hordeum and isnt hordeum_vulgare,hordeum,TA,winter,,,cereal_crops,grain
CHS,Autre céréale d’hiver de genre Secale,is secale and isnt secale_cereale,secale,TA,winter,,,cereal_crops,grain
CHT,Autre céréale d’hiver de genre Triticum,is triticum and isnt triticum_durum and isnt triticum_aestivum,triticum,TA,winter,,,cereal_crops,grain
CPA,Autre céréale de printemps de genre Avena,is avena and isnt avena_sativa,avena,TA,spring,,,cereal_crops,grain
CPH,Autre céréale de printemps de genre Hordeum,is hordeum and isnt hordeum_vulgare,hordeum,TA,spring,,,cereal_crops,grain
CPS,Autre céréale de printemps de genre Secale,is secale and isnt secale_cereale,secale,TA,spring,,,cereal_crops,grain
CPT,Autre céréale de printemps de genre Triticum,is triticum and isnt triticum_durum and isnt triticum_aestivum,triticum,TA,spring,,,cereal_crops,grain
CPZ,Autre céréale de printemps de genre Zea,is zea and isnt zea_mays,zea,TA,spring,,,cereal_crops,grain
CGH,Autre céréale de genre Phalaris,is phalaris,phalaris,TA,,,,cereal_crops,grain
CGP,Autre céréale de genre Panicum,is panicum and isnt panicum_miliaceum,panicum,TA,,,,cereal_crops,grain
CGO,Autre céréale de genre Sorghum,is sorghum and isnt sorghum_bicolor,sorghum,TA,,,,cereal_crops,grain
CGS,Autre céréale de genre Setaria,is setaria and isnt setaria_italica,setaria,TA,,,,cereal_crops,grain
CGF,Autre céréale de genre Fagopyrum,is fagopyrum and isnt fagopyrum_esculentum,fagopyrum,TA,,,,cereal_crops,grain
CAG,Autre céréale d’un autre genre,is poaceae and isnt avena and isnt triticum and isnt zea and isnt panicum and isnt setaria and isnt hordeum and isnt oryza_sativa and isnt fagopyrum and isnt secale and isnt triticosecale and isnt phalaris,poaceae,TA,,,,cereal_crops,grain
MCR,Mélange de céréales,MIXED,poaceae,TA,,2-03-mixing_types,,cereal_crops,grain
