name,label_fr,variety_request,variety,surface_type,season,dehydrated,sweet,precision,Sowed-before,sowed-after,production_family,usage
FVL,Féverole semée avant le 31/05,is vicia_faba,vicia_faba,TA,,,,,31-05,,horsebean_crops,grain
FVT,Féverole semée tardivement (après le 31/05),is vicia_faba,vicia_faba,TA,,,,,,31-05,horsebean_crops,grain
JOD,Jarosse déshydratée,is vicia_cracca,vicia_cracca,TA,,dehydrated,,,,,protein_crops,grain
LDH,Lupin doux d’hiver,is lupinus,lupinus,TA,winter,,sweet,,,,lupin_crops,grain
LDP,Lupin doux de printemps semé avant le 31/05,is lupinus,lupinus,TA,spring,,sweet,,31-05,,lupin_crops,grain
LDT,Lupin doux de printemps semé tardivement (après le 31/05),is lupinus,lupinus,TA,spring,,sweet,,,31-05,lupin_crops,grain
LUD,Luzerne déshydratée,is medicago,medicago,TA,,dehydrated,,,,,alfalfa_crops,grain
MED,Mélilot déshydraté,is melilotus,melilotus,TA,,dehydrated,,,,,protein_crops,grain
PHI,Pois d’hiver,is pisum_sativum,pisum_sativum,TA,winter,,,,,,pea_crops,grain
PPR,Pois de printemps semé avant le 31/05,is pisum_sativum,pisum_sativum,TA,spring,,,,31-05,,pea_crops,grain
PPT,Pois de printemps semé tardivement (après le 31/05),is pisum_sativum,pisum_sativum,TA,spring,,,,,31-05,pea_crops,grain
SAD,Sainfoin déshydraté,is onobrychis,onobrychis,TA,,dehydrated,,,,,protein_crops,grain
SED,Serradelle déshydratée,is ornithopus_sativus,ornithopus_sativus,TA,,dehydrated,,,,,protein_crops,grain
TRD,Trèfle déshydraté,is trifolium,trifolium,TA,,dehydrated,,,,,protein_crops,grain
VED,Vesce déshydratée,is vicia_sativa,vicia_sativa,TA,,dehydrated,,,,,vetch_crops,grain
PAG,Autre protéagineux d’un autre genre,is fabaceae and not (is vicia or is lupinus or is medicago or is melilotus or is pisum or is onobrychis or is ornithopus_sativus or is trifolium),fabaceae,TA,,,,,,,protein_crops,grain
MLD,Mélange de légumineuses déshydratées (entre elles),MIXED,plant,TA,,,,2-03-mixing_types,,,leguminous_crops,grain
MPC,Mélange de protéagineux (pois et/ou lupin et/ou féverole) prépondérants semés avant le 31/05 et de céréales,MIXED,plant,TA,,,,2-03-mixing_types,31-05,,protein_crops,grain
MPT,Mélange de protéagineux semé tardivement (après le 31/05),MIXED,plant,TA,,,,2-03-mixing_types,,31-05,protein_crops,grain
