name,label_fr,variety_request,variety,surface_type,season,precision,maximum_age,sowed-after,production_family,usage
BRH,Bourrache de 5 ans ou moins,is borago,borago,TA,,,5,,meadow,meadow
BRO,Brôme de 5 ans ou moins,is bromus,bromus,TA,,,5,,meadow,meadow
CRA,Cresson alénois de 5 ans ou moins,is lepidium_sativum,lepidium_sativum,TA,,,5,,meadow,meadow
DTY,Dactyle de 5 ans ou moins,is dactylis,dactylis,TA,,,5,,meadow,meadow
FET,Fétuque de 5 ans ou moins,is festuca,festuca,TA,,,5,,meadow,meadow
FLO,Fléole de 5 ans ou moins,is phleum,phleum,TA,,,5,,meadow,meadow
PAT,Paturin commun de 5 ans ou moins,is poa_trivialis,poa_trivialis,TA,,,5,,meadow,meadow
PCL,Phacélie de 5 ans ou moins,is phacelia,phacelia,TA,,,5,,meadow,meadow
RGA,Ray-grass de 5 ans ou moins,is lolium,lolium,TA,,,5,,meadow,meadow
XFE,X-Felium de 5 ans ou moins,is x_felium,poaceae,TA,,,5,,meadow,meadow
GFP,Autre graminée fourragère pure de 5 ans ou moins,is poaceae,poaceae,TA,,,5,,meadow,meadow
MLG,Mélange de légumineuses prépondérantes au semis et de graminées fourragères de 5 ans ou moins,MIXED,plant,TA,,,5,,meadow,meadow
PTR,Autre prairie temporaire de 5 ans ou moins,is plant,plant,TA,,,5,,meadow,meadow
