code,label_fr,variety_request,variety,PRV
1,Variété sans mesure PRV,is cichorium,cichorium,false
2,Chicorée Barbe de Capucin des carrières du Nord,is cichorium_barbe_de_capucin,cichorium_barbe_de_capucin,true
3,Endive Janus,is cichorium_endivia_janus,cichorium_endivia_janus,true
4,Endive Mona,is cichorium_endivia_mona,cichorium_endivia_mona,true
5,Tête d'Anguille,is cichorium_tete_d_anguille,cichorium_tete_d_anguille,true
999,Autre variété avec mesure PRV,is cichorium,cichorium,true
