code,label_fr,variety_request,variety,PRV
1,Variété sans mesure PRV,is allium_porrum,allium_porrum,false
2,Leblond,is allium_porrum_leblond,allium_porrum_leblond,true
999,Autre variété avec mesure PRV,is allium_porrum,allium_porrum,true
