code,label_fr,variety_request,variety,PRV
1,Variété sans mesure PRV,is malus_pumila,malus_pumila,false
332,Alza sagarra,is malus_pumila_alza_sagarra,malus_pumila_alza_sagarra,true
333,Amères de Bernieulles,is malus_pumila_ameres_de_bernieulles,malus_pumila_ameres_de_bernieulles,true
334,Anixa Antze sagarra,is malus_pumila_anixa_antze_sagarra,malus_pumila_anixa_antze_sagarra,true
335,Azaou sagarra,is malus_pumila_azaou_sagarra,malus_pumila_azaou_sagarra,true
336,Blanquette,is malus_pumila_blanquette,malus_pumila_blanquette,true
337,Bordelesa,is malus_pumila_bordelesa,malus_pumila_bordelesa,true
338,Bourdin sagarra,is malus_pumila_bourdin_sagarra,malus_pumila_bourdin_sagarra,true
339,Cachao sagarra,is malus_pumila_cachao_sagarra,malus_pumila_cachao_sagarra,true
340,Douzandin,is malus_pumila_douzandin_cidre,malus_pumila_douzandin_cidre,true
341,Entzea sagarra,is malus_pumila_entzea_sagarra,malus_pumila_entzea_sagarra,true
342,Eri sagarra,is malus_pumila_eri_sagarra_cidre,malus_pumila_eri_sagarra_cidre,true
343,Errezila sagarra,is malus_pumila_errezila_sagarra,malus_pumila_errezila_sagarra,true
344,Estirochia sagarra,is malus_pumila_estirochia_sagarra,malus_pumila_estirochia_sagarra,true
345,Eztica,is malus_pumila_eztica,malus_pumila_eztica,true
346,Gazi loka,is malus_pumila_gazi_loka,malus_pumila_gazi_loka,true
347,Geza,is malus_pumila_geza,malus_pumila_geza,true
348,Geza xurria,is malus_pumila_geza_xurria,malus_pumila_geza_xurria,true
349,Gordain xurria,is malus_pumila_gordain_xurria,malus_pumila_gordain_xurria,true
350,Gorri,is malus_pumila_gorri,malus_pumila_gorri,true
351,Jinkoa sagarra,is malus_pumila_jinkoa_sagarra,malus_pumila_jinkoa_sagarra,true
352,Koko gorria,is malus_pumila_koko_gorria,malus_pumila_koko_gorria,true
353,Koko xurria,is malus_pumila_koko_xurria,malus_pumila_koko_xurria,true
354,Kokua,is malus_pumila_kokua,malus_pumila_kokua,true
355,Libra sagarra,is malus_pumila_libra_sagarra,malus_pumila_libra_sagarra,true
356,Mamula – xurri,is malus_pumila_mamula_xurri,malus_pumila_mamula_xurri,true
357,Marie Menard,is malus_pumila_marie_menard,malus_pumila_marie_menard,true
358,Panneterie,is malus_pumila_panneterie,malus_pumila_panneterie,true
359,Patzulua,is malus_pumila_patzulua,malus_pumila_patzulua,true
360,Peaxa,is malus_pumila_peaxa,malus_pumila_peaxa,true
361,Perasse de Gan,is malus_pumila_perasse_de_gan,malus_pumila_perasse_de_gan,true
362,Perasse de Nay,is malus_pumila_perasse_de_nay,malus_pumila_perasse_de_nay,true
363,Perasse grise,is malus_pumila_perasse_grise,malus_pumila_perasse_grise,true
364,Perasse jaune,is malus_pumila_perasse_jaune,malus_pumila_perasse_jaune,true
365,Roquet rouge,is malus_pumila_roquet_rouge_cidre,malus_pumila_roquet_rouge_cidre,true
366,Rouge extra très tardive,is malus_pumila_rouge_extra_tres_tardive,malus_pumila_rouge_extra_tres_tardive,true
367,Urieta sagarra,is malus_pumila_urieta_sagarra,malus_pumila_urieta_sagarra,true
368,Usta xurria,is malus_pumila_usta_xurria,malus_pumila_usta_xurria,true
999,Autre variété avec mesure PRV,is malus_pumila,malus_pumila,true
