code,label_fr,variety_request,variety,PRV
1,Variété sans mesure PRV,is pyrus_communis,pyrus_communis,false
43,Beurré d'Anjou,is pyrus_communis_beurre_d_anjou,pyrus_communis_beurre_d_anjou,true
44,Beurré de l'Assomption,is pyrus_communis_beurre_de_l_assomption,pyrus_communis_beurre_de_l_assomption,true
45,Beurré Lebrun,is pyrus_communis_beurre_lebrun,pyrus_communis_beurre_lebrun,true
46,Beurré Superfin,is pyrus_communis_beurre_surperfin,pyrus_communis_beurre_surperfin,true
47,Bonnissime de la Sarthe,is pyrus_communis_bonnissime_de_la_sarthe,pyrus_communis_bonnissime_de_la_sarthe,true
48,Comtesse de Paris,is pyrus_communis_comtesse_de_paris,pyrus_communis_comtesse_de_paris,true
49,Comélie,is pyrus_communis_comelie,pyrus_communis_comelie,true
50,Cuisse Dame,is pyrus_communis_cuisse_dame,pyrus_communis_cuisse_dame,true
51,Curé,is pyrus_communis_cure,pyrus_communis_cure,true
52,Dayenné,is pyrus_communis_dayenne,pyrus_communis_dayenne,true
53,Duchesse de Poitiers,is pyrus_communis_duchesse_de_poitiers,pyrus_communis_duchesse_de_poitiers,true
54,Duchesse du Berry,is pyrus_communis_duchesse_du_berry,pyrus_communis_duchesse_du_berry,true
55,Eugène Thirriot,is pyrus_communis_eugene_thirriot,pyrus_communis_eugene_thirriot,true
56,Fondante Thirriot,is pyrus_communis_fondante_thirriot,pyrus_communis_fondante_thirriot,true
57,Grosse Louise,is pyrus_communis_grosse_louise,pyrus_communis_grosse_louise,true
58,Jean Nicolas,is pyrus_communis_jean_nicolas,pyrus_communis_jean_nicolas,true
59,Légipont,is pyrus_communis_legipont,pyrus_communis_legipont,true
60,Madame Grégoire,is pyrus_communis_madame_gregoire,pyrus_communis_madame_gregoire,true
61,Marguerite Marillat,is pyrus_communis_marguerite_marillat,pyrus_communis_marguerite_marillat,true
62,Nipé Nimé,is pyrus_communis_nipe_nime,pyrus_communis_nipe_nime,true
63,Plovinne,is pyrus_communis_plovinne,pyrus_communis_plovinne,true
64,Poire à Clément,is pyrus_communis_poire_a_clement,pyrus_communis_poire_a_clement,true
65,Poire à côte d'or,is pyrus_communis_poire_a_cote_d_or,pyrus_communis_poire_a_cote_d_or,true
66,Poire à cuire grise de Wierre au Bois,is pyrus_communis_poire_a_cuire_grise_de_wierre_au_bois,pyrus_communis_poire_a_cuire_grise_de_wierre_au_bois,true
67,Poire Blanquette,is pyrus_communis_poire_blanquette,pyrus_communis_poire_blanquette,true
68,Poire Boutoc – Poire d'Ange,is pyrus_communis_poire_boutoc_poire_d_ange,pyrus_communis_poire_boutoc_poire_d_ange,true
69,Poire Caillaou Rosat,is pyrus_communis_poire_caillaou_rosat,pyrus_communis_poire_caillaou_rosat,true
70,Poire Catillac,is pyrus_communis_poire_catillac,pyrus_communis_poire_catillac,true
71,Poire Citron,is pyrus_communis_poire_citron,pyrus_communis_poire_citron,true
72,Poire Curé,is pyrus_communis_poire_cure,pyrus_communis_poire_cure,true
73,Poire d'Anis,is pyrus_communis_poire_d_anis,pyrus_communis_poire_d_anis,true
74,Poire d'août de Seninghem,is pyrus_communis_poire_d_aout_de_seninghem,pyrus_communis_poire_d_aout_de_seninghem,true
75,Poire de Béton,is pyrus_communis_poire_de_beton,pyrus_communis_poire_de_beton,true
76,Poire de Beurre,is pyrus_communis_poire_de_beurre,pyrus_communis_poire_de_beurre,true
77,Poire de Blanc,is pyrus_communis_poire_de_blanc,pyrus_communis_poire_de_blanc,true
78,Poire de Calot,is pyrus_communis_poire_de_calot,pyrus_communis_poire_de_calot,true
79,Poire de Cave,is pyrus_communis_poire_de_cave,pyrus_communis_poire_de_cave,true
80,Poire de Cheminée,is pyrus_communis_poire_de_cheminee,pyrus_communis_poire_de_cheminee,true
81,Poire de Curé,is pyrus_communis_poire_de_cure,pyrus_communis_poire_de_cure,true
82,Poire de Fret,is pyrus_communis_poire_de_fret,pyrus_communis_poire_de_fret,true
83,Poire de Guinette,is pyrus_communis_poire_de_guinette,pyrus_communis_poire_de_guinette,true
84,Poire de Jargonelle,is pyrus_communis_poire_de_jargonelle,pyrus_communis_poire_de_jargonelle,true
85,Poire de livre,is pyrus_communis_poire_de_livre,pyrus_communis_poire_de_livre,true
86,Poire de Loup,is pyrus_communis_poire_de_loup,pyrus_communis_poire_de_loup,true
87,Poire De Marsanneix,is pyrus_communis_poire_de_marsanneix,pyrus_communis_poire_de_marsanneix,true
88,Poire de Moreau,is pyrus_communis_poire_de_moreau,pyrus_communis_poire_de_moreau,true
89,Poire de Petit Roux,is pyrus_communis_poire_de_petit_roux,pyrus_communis_poire_de_petit_roux,true
90,Poire de Rapace,is pyrus_communis_poire_de_rapace,pyrus_communis_poire_de_rapace,true
91,Poire de Râteau Rouge,is pyrus_communis_poire_de_rateau_rouge,pyrus_communis_poire_de_rateau_rouge,true
92,Poire de Roulée,is pyrus_communis_poire_de_roulee,pyrus_communis_poire_de_roulee,true
93,Poire de Saint Antoine,is pyrus_communis_poire_de_saint_antoine,pyrus_communis_poire_de_saint_antoine,true
94,Poire de sang,is pyrus_communis_poire_de_sang,pyrus_communis_poire_de_sang,true
95,Poire de Vierge,is pyrus_communis_poire_de_vierge,pyrus_communis_poire_de_vierge,true
96,Poire Duchesse d'Angoulême,is pyrus_communis_poire_duchesse_d_angouleme,pyrus_communis_poire_duchesse_d_angouleme,true
97,Poire Epargne – Cuisse Madame,is pyrus_communis_poire_epargne_cuisse_madame,pyrus_communis_poire_epargne_cuisse_madame,true
98,Poire Marguerite Marillat,is pyrus_communis_poire_marguerite_marillat,pyrus_communis_poire_marguerite_marillat,true
99,Poire Monsallard – Epine d'été,is pyrus_communis_poire_monsallard_epine_d_ete,pyrus_communis_poire_monsallard_epine_d_ete,true
100,Poire Mouille Bouche – Jansémine,is pyrus_communis_poire_mouille_bouche_jansemine,pyrus_communis_poire_mouille_bouche_jansemine,true
101,Poire Notre-Dame,is pyrus_communis_poire_notre_dame,pyrus_communis_poire_notre_dame,true
102,Poire Orange,is pyrus_communis_poire_orange,pyrus_communis_poire_orange,true
103,Poire Pérou d'argent,is pyrus_communis_poire_perou_d_argent,pyrus_communis_poire_perou_d_argent,true
104,Poire Reinette,is pyrus_communis_poire_reinette,pyrus_communis_poire_reinette,true
105,Poire Saint Jean,is pyrus_communis_poire_saint_jean,pyrus_communis_poire_saint_jean,true
106,Poire Sucré Vert,is pyrus_communis_poire_sucre_vert,pyrus_communis_poire_sucre_vert,true
107,Poire de Mare,is pyrus_communis_poire_de_mare,pyrus_communis_poire_de_mare,true
108,Rivailles,is pyrus_communis_rivailles,pyrus_communis_rivailles,true
109,Saint Mathieu,is pyrus_communis_saint_mathieu,pyrus_communis_saint_mathieu,true
110,Sans pépins,is pyrus_communis_sans_pepins,pyrus_communis_sans_pepins,true
111,Sucrée vert de Montluçon,is pyrus_communis_sucree_vert_de_montlucon,pyrus_communis_sucree_vert_de_montlucon,true
112,Sucrée de Montluçon,is pyrus_communis_sucree_de_montlucon,pyrus_communis_sucree_de_montlucon,true
113,Triomphe de vienne,is pyrus_communis_triomphe_de_vienne,pyrus_communis_triomphe_de_vienne,true
999,Autre variété avec mesure PRV,is pyrus_communis,pyrus_communis,true
