code,label_fr,variety_requested,variety,PRV
1,Variété sans mesure PRV,is prunus_persica,prunus_persica,false
42,Pêche Roussane de Moneincode,is prunus_persica_roussane_de_monein,prunus_persica_roussane_de_monein,true
999,Autre variété avec mesure PRV,is prunus_persica,prunus_persica,true
