code,label_fr,variety_request,variety,PRV
1,Variété sans mesure PRV,is olea_europaea,olea_europaea,false
2,Araban des Alpes-Maritimes,is olea_europaea_araban_des_alpes_maritimes,olea_europaea_araban_des_alpes_maritimes,true
3,Araban du Var,is olea_europaea_araban_du_var,olea_europaea_araban_du_var,true
4,Avellanet,is olea_europaea_is olea_europaea,olea_europaea_olea_europaea,true
5,Beaussaret,is olea_europaea_beaussaret,olea_europaea_beaussaret,true
6,Bécu (du Var),is olea_europaea_becu,olea_europaea_becu,true
7,Belgentiéroise,is olea_europaea_belgentieroise,olea_europaea_belgentieroise,true
8,Blanquetier,is olea_europaea_blanquetier,olea_europaea_blanquetier,true
9,Blavet,is olea_europaea_blavet,olea_europaea_blavet,true
10,Bonne Mode,is olea_europaea_bonne_mode,olea_europaea_bonne_mode,true
11,Boube,is olea_europaea_boube,olea_europaea_boube,true
12,Boussarlu,is olea_europaea_boussarlu,olea_europaea_boussarlu,true
13,Brun,is olea_europaea_brun,olea_europaea_brun,true
14,Calian,is olea_europaea_calian,olea_europaea_calian,true
15,Cayanne,is olea_europaea_cayanne,olea_europaea_cayanne,true
16,Cayet blanc,is olea_europaea_cayet_blanc,olea_europaea_cayet_blanc,true
17,Cayet bleu,is olea_europaea_cayet_bleu,olea_europaea_cayet_bleu,true
18,Cayet rouge,is olea_europaea_rouge,olea_europaea_rouge,true
19,Cayet roux,is olea_europaea_roux,olea_europaea_roux,true
20,Cerisier,is olea_europaea_cerisier,olea_europaea_cerisier,true
21,Colombale,is olea_europaea_colombale,olea_europaea_colombale,true
22,Cornalière,is olea_europaea_cornaliere,olea_europaea_cornaliere,true
23,Coucourelle,is olea_europaea_coucourelle,olea_europaea_coucourelle,true
24,Curnet,is olea_europaea_curnet,olea_europaea_curnet,true
25,Dent de Verrat,is olea_europaea_dent_de_verrat,olea_europaea_dent_de_verrat,true
26,Filaïre noire,is olea_europaea_filaïre_noire,olea_europaea_filaïre_noire,true
27,Grapié,is olea_europaea_grapie,olea_europaea_grapie,true
28,Grassois,is olea_europaea_grassois,olea_europaea_grassois,true
29,Gros Ribier,is olea_europaea_gros_ribier,olea_europaea_gros_ribier,true
30,Melegrand,is olea_europaea_melegrand,olea_europaea_melegrand,true
31,Montaurounenque,is olea_europaea_montaurounenque,olea_europaea_montaurounenque,true
32,Nostral,is olea_europaea_nostral,olea_europaea_nostral,true
33,Pardiguier,is olea_europaea_pardiguier,olea_europaea_pardiguier,true
34,Petit Broutignan,is olea_europaea_petit_broutignan,olea_europaea_petit_broutignan,true
35,Petit Ribier,is olea_europaea_petit_ribier,olea_europaea_petit_ribier,true
36,Petite noire (de Puget),is olea_europaea_petit_noire,olea_europaea_petit_noire,true
37,Pignola (Roquebrune Cap Martin),is olea_europaea_pignola,olea_europaea_pignola,true
38,Ponchinelle,is olea_europaea_ponchinelle,olea_europaea_ponchinelle,true
39,Rapière,is olea_europaea_rapiere,olea_europaea_rapiere,true
40,Rascasset,is olea_europaea_rascasset,olea_europaea_rascasset,true
41,Reymet,is olea_europaea_reymet,olea_europaea_reymet,true
42,Rosée du Mont d’Or,is olea_europaea_rosee_du_mont_or,olea_europaea_rosee_du_mont_or,true
43,Rougeonne,is olea_europaea_rougeonne,olea_europaea_rougeonne,true
44,Rousset(te) du Var,is olea_europaea_rousset_du_var,olea_europaea_rousset_du_var,true
45,Sanguin,is olea_europaea_sanguin,olea_europaea_sanguin,true
46,Saurine,is olea_europaea_saurine,olea_europaea_saurine,true
47,Totivette,is olea_europaea_totivette,olea_europaea_totivette,true
48,Tripue,is olea_europaea_trique,olea_europaea_trique,true
49,Verdale de Tourtour,is olea_europaea_verdale_de_tourtour,olea_europaea_verdale_de_tourtour,true
50,Verdale des Bouches du Rhône,is olea_europaea_verdale_des_bouches_du_rhone,olea_europaea_verdale_des_bouches_du_rhone,true
999,Autre variété avec mesure PRV,is olea_europaea,olea_europaea,true
