name,label_fr,variety_request,variety,surface_type,season,precision,sowed-after,production_family,usage
ARA,arachide,is arachis_hypogaea,arachis_hypogaea,TA,,,,leguminous_crops,grain
CRN,cornille,is vigna_unguiculata,vigna_unguiculata,TA,,,,leguminous_crops,grain
DOL,dolique,is vigna_unguiculata,vigna_unguiculata,TA,,,,leguminous_crops,grain
FNU,fenugrec,is trigonella_foenum_graecum,trigonella_foenum_graecum,TA,,,,leguminous_crops,grain
GES,gesse,is lathyrus_sativus,lathyrus_sativus,TA,,,,leguminous_crops,grain
LEC,lentille cultivée,is lens_culinaris,lens_culinaris,TA,,,,lentil_crops,grain
LOT,lotier,is lotus_corniculatus,lotus_corniculatus,TA,,,,leguminous_crops,grain
MIN,minette,is medicago_lupulina,medicago_lupulina,TA,,,,leguminous_crops,grain
PCH,pois chiche,is cicer_arietinum,cicer_arietinum,TA,,,,leguminous_crops,grain
MLS,Mélange de légumineuses non fourragères prépondérantes et de céréales  et/ou oléagineux,MIXED,plant,TA,,2-03-mixing_types,,leguminous_crops,fodder
