name,label_fr,variety_request,variety,surface_type,season,precision,plant-type,minimum_age,production_family,usage
PRL,Prairie en rotation longue (6 ans ou plus),is poaceae,poaceae,PP,,2-02-non_admissible_area_percentage,meadow,6,meadow,meadow
PPH,Prairie permanente – herbe  (ressources fourragères ligneuses absentes ou peu présentes),is poaceae,poaceae,PP,,2-02-non_admissible_area_percentage,meadow,,meadow,meadow
SPL,Surface pastorale – ressources fourragères ligneuses prédominantes,is poaceae,poaceae,PP,,2-02-non_admissible_area_percentage,meadow,,meadow,meadow
SPH,Surface pastorale – herbe prédominante et ressources fourragères ligneuses présentes,is poaceae,poaceae,PP,,2-02-non_admissible_area_percentage,meadow,,meadow,meadow
BOP,Bois pâturé (prairie herbacée sous couvert d’arbres),is plant,plant,PP,,2-02-non_admissible_area_percentage,meadow,,meadow,meadow
CAE,Châtaigneraie entretenue par des porcins ou des petits ruminants,is plant,plant,PP,,2-02-non_admissible_area_percentage,meadow,,meadow,meadow
CEE,Chênaie entretenue par des porcins ou des petits ruminants,is plant,plant,PP,,2-02-non_admissible_area_percentage,meadow,,meadow,meadow
ROS,Roselière,is plant,plant,PP,,2-02-non_admissible_area_percentage,meadow,,meadow,meadow
