name,label_fr,variety_request,variety,surface_type,season,precision,plant-type,support_nature
MPA,Autre mélange de plantes fixant l'azote,MIXED,plant,TA,,2-03-mixing_types,mixed,cultivation
MCT,Miscanthus,is miscanthus,miscanthus,CP,,,mixed,cultivation
CSS,Culture sous serre hors sol,is plant,plant,,,,,cultivation
TCR,Taillis à courte rotation,is plant,plant,CP,,2-04-thicket_varieties,wood,cultivation
TRU,Truffière (plants mycorhizés),is plant,plant,CP,,,wood,cultivation
SBO,Surface boisée sur une ancienne terre agricole,is plant,plant,,,2-05-wooding_types,wood,cultivation
SNE,Surface agricole temporairement non exploitée,,,,,,,none
MRS,Marais salant,,,,,,,none
BFP,Bande admissible le long d'une forêt avec production,,,,,,fallow,buffer
BFS,Bande admissible le long d'une forêt sans production,,,,,,fallow,buffer
BTA,Bande tampon,,,,,,fallow,buffer
BOR,Bordure de champ,,,,,,mixed,border
CID,Cultures conduites en inter-rangs : 2 cultures représentant chacune plus de 25%,is plant,plant,,,,mixed,cultivation
CIT,Cultures conduites en inter-rangs : 3 cultures représentant chacune plus de 25%,is plant,plant,,,,mixed,cultivation
