code,label_fr,variety_requested,variety,PRV
1,Variété sans mesure PRV,is prunus_armeniaca,prunus_armeniaca,false
2,Abricot Commun de Clairac,is prunus_armeniaca_abricot_commun_de_clairac,prunus_armeniaca_abricot_commun_de_clairac,true
3,Abricot Commun de Nicole - Commerce,is prunus_armeniaca_abricot_commun_de_nicole_commerce,prunus_armeniaca_abricot_commun_de_nicole_commerce,true
4,Abricot Muscat de Clairac,is prunus_armeniaca_abricot_muscat_de_clairac,prunus_armeniaca_abricot_muscat_de_clairac,true
5,Abricot Nancy de Clairac,is prunus_armeniaca_abricot_nancy_de_clairac,prunus_armeniaca_abricot_nancy_de_clairac,true
6,Abricot Pêche de Nancy,is prunus_armeniaca_abricot_peche_de_nancy,prunus_armeniaca_abricot_peche_de_nancy,true
999,Autre variété avec mesure PRV,is prunus_armeniaca,prunus_armeniaca,true
