name,label_fr,variety_request,variety,surface_type,season,precision,sowed-after,production_family,usage
BVF,Betterave fourragère,is beta_vulgaris,beta_vulgaris,TA,,,,beet_crops,fodder
CAF,Carotte fourragère,is daucus_carota,daucus_carota,TA,,,,carrot_crops,fodder
CHF,Chou fourrager,is brassica_oleracea,brassica_oleracea,TA,,,,cabbage_crops,fodder
LEF,Lentille fourragère,is lens_culinaris,lens_culinaris,TA,,,,lentil_crops,fodder
NVF,Navet fourrager,is brassica_rapa ,brassica_rapa ,TA,,,,turnip_crops,fodder
RDF,Radis fourrager,is raphanus_sativus,raphanus_sativus,TA,,,,radish_crops,fodder
FSG,Autre plante fourragère sarclée d’un autre genre,is plant,plant,TA,,,,fodder_crops,fodder
FAG,Autre fourrage annuel d’un autre genre,is plant,plant,TA,,,,fodder_crops,fodder
CPL,Fourrage composé de céréales et/ou de protéagineux (en proportion < 50%) et/ou de légumineuses fourragères (en proportion < 50%),MIXED,plant,TA,,2-03-mixing_types,,fodder_crops,fodder
