name,label_fr,variety_request,variety,surface_type,season,precision,production_family,usage
AIL,Ail,is allium_sativum,allium_sativum,TA,,2-06-garlic_varieties,garlic_crops,vegetable
ART,Artichaut,is cynara_scolymus,cynara_scolymus,CP,,2-07-artichoke_varieties,artichoke_crops,vegetable
AUB,Aubergine,is solanum_melongena,solanum_melongena,TA,,,eggplant_crops,vegetable
AVO,Avocat,is persea_americana,persea_americana,TA,,,avocado_crops,vegetable
BTN,Betterave non fourragère / Bette,is beta_vulgaris,beta_vulgaris,TA,,,beet_crops,vegetable
CAR,Carotte,is daucus_carota,daucus_carota,TA,,2-10-carrot_varieties,carrot_crops,vegetable
CEL,Céleri,is apium_graveolens,apium_graveolens,TA,,,celery_crops,vegetable
CES,Chicorée / Endive / Scarole,is cichorium,cichorium,TA,,2-13-chicory_varieties,chicory_crops,vegetable
CHU,Chou,is brassica_oleracea,brassica_oleracea,TA,,2-14-cabbage_varieties,cabbage_crops,vegetable
CCN,Concombre / Cornichon,is cucumis_sativus,cucumis_sativus,TA,,,market_garden_crops,vegetable
CMB,Courge musquée / Butternut,is cucurbita_moschata,cucurbita_moschata,TA,,,market_garden_crops,vegetable
CCT,Courgette / Citrouille,is cucurbita_pepo,cucurbita_pepo,TA,,,market_garden_crops,vegetable
CRS,Cresson,is lepidium_sativum,lepidium_sativum,TA,,2-15-watercress_varieties,market_garden_crops,vegetable
EPI,Epinard,is spinacia_oleracea,spinacia_oleracea,TA,,,market_garden_crops,vegetable
FEV,Fève,is vicia_faba,vicia_faba,TA,,,market_garden_crops,vegetable
FRA,Fraise,is fragaria,fragaria,TA,,,fruits_crops,vegetable
HAR,Haricot / Flageolet,is phaseolus,phaseolus,TA,,2-16-bean_varieties,bean_crops,vegetable
HBL,Houblon,is humulus_lupulus,humulus_lupulus,CP,,,,vegetable
LBF,Laitue / Batavia / Feuille de chêne,is lactuca_sativa,lactuca_sativa,TA,,2-17-lettuce_varieties,market_garden_crops,vegetable
MAC,Mâche,is valerianella_locusta,valerianella_locusta,TA,,,market_garden_crops,vegetable
MLO,Melon,is cucumis_melo,cucumis_melo,TA,,,muskmelon_crops,vegetable
NVT,Navet,is brassica_rapa ,brassica_rapa ,TA,,,turnip_crops,vegetable
OIG,Oignon / Echalotte,is allium_cepa,allium_cepa,TA,,,onion_crops,vegetable
PAN,Panais,is pastinaca_sativa,pastinaca_sativa,TA,,,market_garden_crops,vegetable
PAS,Pastèque,is citrullus_lanatus,citrullus_lanatus,TA,,,watermelon_crops,vegetable
PPO,Petits pois,is pisum,pisum,TA,,,pea_crops,vegetable
POR,Poireau,is allium_porrum,allium_porrum,TA,,2-20-leek_varieties,leek_crops,vegetable
PVP,Poivron / Piment,is capsicum,capsicum,TA,,,market_garden_crops,vegetable
PTC,Pomme de terre de consommation,is solanum_tuberosum,solanum_tuberosum,TA,,,potato_crops,vegetable
PTF,Pomme de terre féculière,is solanum_tuberosum,solanum_tuberosum,TA,,2-21-starch_potato_varieties,potato_crops,vegetable
POT,Potiron / Potimarron,is cucurbita_maxima,cucurbita_maxima,TA,,,market_garden_crops,vegetable
RDI,Radis,is raphanus_sativus,raphanus_sativus,TA,,,radish_crops,vegetable
ROQ,Roquette,is eruca_vesicaria,eruca_vesicaria,TA,,,market_garden_crops,vegetable
RUT,Rutabaga,is brassica_napus_rapifera,brassica_napus_rapifera,TA,,,market_garden_crops,vegetable
SFI,Salsifis,is tragopogon,tragopogon,TA,,,market_garden_crops,vegetable
TAB,Tabac,is nicotiana,nicotiana,TA,,,tobacco_crops,vegetable
TOM,Tomate,is solanum_lycopersicum,solanum_lycopersicum,TA,,,tomato_crops,vegetable
TOT,Tomate pour transformation,is solanum_lycopersicum,solanum_lycopersicum,TA,,,tomato_crops,vegetable
TOP,Topinambour,is helianthus_tuberosus,helianthus_tuberosus,TA,,,market_garden_crops,vegetable
FLA,Autre légume ou fruit annuel,is plant,plant,TA,,,market_garden_crops,vegetable
FLP,Autre légume ou fruit pérenne,is plant,plant,CP,,,market_garden_crops,vegetable
