name,label_fr,variety_request,variety,surface_type,season,precision,production_family
ANE,Aneth,is anethum_graveolens,anethum_graveolens,TA,,,aromatic_and_medicinal_plants
ANG,Angélique,is angelica,angelica,TA,,,aromatic_and_medicinal_plants
ANI,Anis,is pimpinella_anisum,pimpinella_anisum,TA,,,aromatic_and_medicinal_plants
BAR,Bardane,is arctium,arctium,TA,,,aromatic_and_medicinal_plants
BAS,Basilic,is ocimum_basilicum,ocimum_basilicum,TA,,,aromatic_and_medicinal_plants
BLT,Bleuet,is centaurea_cyanus,centaurea_cyanus,TA,,,aromatic_and_medicinal_plants
BUR,Bugle rampant,is ajuga_reptans,ajuga_reptans,TA,,,aromatic_and_medicinal_plants
CMM,Camomille,is chamaemelum,chamaemelum,TA,,,aromatic_and_medicinal_plants
CAV,Carvi,is carum_carvi,carum_carvi,TA,,,aromatic_and_medicinal_plants
CRF,Cerfeuil,is anthriscus_cerefolium,anthriscus_cerefolium,TA,,,aromatic_and_medicinal_plants
CHR,Chardon Marie,is silybum_marianum,silybum_marianum,TA,,,aromatic_and_medicinal_plants
CIB,Ciboulette,is allium_schoenoprasum,allium_schoenoprasum,TA,,,aromatic_and_medicinal_plants
CRD,Coriandre,is coriandrum_sativum,coriandrum_sativum,TA,,,aromatic_and_medicinal_plants
CUM,Cumin,is cuminum,cuminum,TA,,,aromatic_and_medicinal_plants
EST,Estragon,is artemisia_dracunculus,artemisia_dracunculus,TA,,,aromatic_and_medicinal_plants
FNO,Fenouil,is foeniculum,foeniculum,TA,,,aromatic_and_medicinal_plants
GAI,Gaillet,is galium,galium,TA,,,aromatic_and_medicinal_plants
LAV,Lavande / Lavandin,is lavandula,lavandula,CP,,,aromatic_and_medicinal_plants
MRG,Marguerite,is leucanthemum ,leucanthemum,TA,,,aromatic_and_medicinal_plants
MRJ,Marjolaine / Origan,is origanum_majorana,origanum_majorana,TA,,,aromatic_and_medicinal_plants
MAV,Mauve,is malva,malva,TA,,2-18-mallow_varieties,aromatic_and_medicinal_plants
MLI,Mélisse,is melissa,melissa,TA,,,aromatic_and_medicinal_plants
MTH,Menthe,is mentha,mentha,TA,,,aromatic_and_medicinal_plants
MLP,Millepertuis,is hypericum,hypericum,TA,,,aromatic_and_medicinal_plants
OSE,Oseille,is rumex,rumex,TA,,,aromatic_and_medicinal_plants
ORT,Ortie,is urtica,urtica,TA,,,aromatic_and_medicinal_plants
PAQ,Pâquerette,is bellis_perennis,bellis_perennis,TA,,,aromatic_and_medicinal_plants
PSE,Pensée,is viola,viola_arvensis,TA,,,aromatic_and_medicinal_plants
PSL,Persil,is petroselinum_crispum,petroselinum_crispum,TA,,,aromatic_and_medicinal_plants
PSY,Plantain psyllium,is plantago_psyllium,plantago_psyllium,TA,,,aromatic_and_medicinal_plants
PMV,Primevère,is primula,primula,TA,,,aromatic_and_medicinal_plants
PSN,Psyllium noir de Provence,is plantago_psyllium,plantago_psyllium,TA,,,aromatic_and_medicinal_plants
ROM,Romarin,is rosmarinus,rosmarinus,TA,,,aromatic_and_medicinal_plants
SRI,Sariette,is satureja,satureja,TA,,,aromatic_and_medicinal_plants
SGE,Sauge,is salvia,salvia,TA,,,aromatic_and_medicinal_plants
THY,Thym,is thymus,thymus,TA,,,aromatic_and_medicinal_plants
VAL,Valériane,is valeriana,valeriana,TA,,,aromatic_and_medicinal_plants
VER,Véronique,is veronica,veronica,TA,,,aromatic_and_medicinal_plants
PPA,Autre PPAM annuelle,((is anethum and isnt anethum_graveolens) or (is pimpinella and isnt pimpinella_anisum) or (is ocimum and isnt ocimum_basilicum) or (is centaurea and isnt centaurea_cyanus) or (is ajuga and isnt ajuga_reptans) or (is carum and isnt carum_carvi) or (is anthriscus and isnt anthriscus_cerefolium) or (is silybum and isnt silybum_marianum) or (is coriandrum and isnt coriandrum_sativum) or (is artemisia and isnt artemisia_dracunculus) or (is origanum and isnt origanum_majorana) or (is bellis and isnt bellis_perennis) or (is petroselinum and isnt petroselinum_crispum) or (is plantago and isnt plantago_psyllium)) and not ((is ribes_nigrum and used for medicine) or is rosa or is genista_tinctoria or is gentiana or is gentianella or is gentianopsis or is ginkgo_biloba or is hamamalis or is helichrysum or is jasminum or is laurus or is prunus_laurocerasus or is magnolia or is nerium_oleander or is umbellularia or is passiflora or is crocus_sativus or is sambucus or is tilia or is aloysia or is glandularia or is verbena or (is vits_vinifera and used for medicine) or (is viola and isnt viola_arvensis and isnt viola_bicolor and isnt viola_tricolor)),plant,TA,,,aromatic_and_medicinal_plants
PPP,Autre PPAM pérenne,(is ribes_nigrum and used for medicine) or is rosa or is genista_tinctoria or is gentiana or is gentianella or is gentianopsis or is ginkgo_biloba or is hamamalis or is helichrysum or is jasminum or is laurus or is prunus_laurocerasus or is magnolia or is nerium_oleander or is umbellularia or is passiflora or is crocus_sativus or is sambucus or is tilia or is aloysia or is glandularia or is verbena or (is vits_vinifera and used for medicine) or (is viola and isnt viola_arvensis and isnt viola_bicolor and isnt viola_tricolor),plant,CP,,,aromatic_and_medicinal_plants
