code,label_fr,variety_request,variety
1,Acalou,is triticum_durum_acalou,triticum_durum_acalou
2,Actisur,is triticum_durum_actisur,triticum_durum_actisur
3,Ailandur,is triticum_durum_ailandur,triticum_durum_ailandur
4,Akenaton,is triticum_durum_akenaton,triticum_durum_akenaton
5,Alexis,is triticum_durum_alexis,triticum_durum_alexis
6,Alfaro,is triticum_durum_alfaro,triticum_durum_alfaro
7,Anco Marzio,is triticum_durum_anco_marzio,triticum_durum_anco_marzio
8,Anvergur,is triticum_durum_anvergur,triticum_durum_anvergur
9,Argelès,is triticum_durum_argeles,triticum_durum_argeles
10,Athoris,is triticum_durum_athoris,triticum_durum_athoris
11,Atoudur,is triticum_durum_atoudur,triticum_durum_atoudur
12,Attila,is triticum_durum_attila,triticum_durum_attila
13,Augur,is triticum_durum_augur,triticum_durum_augur
14,Auris,is triticum_durum_auris,triticum_durum_auris
15,Aventur,is triticum_durum_aventur,triticum_durum_aventur
16,Babylone,is triticum_durum_babylone,triticum_durum_babylone
17,Biensur,is triticum_durum_biensur,triticum_durum_biensur
18,Byblos,is triticum_durum_byblos,triticum_durum_byblos
101,Byzance,is triticum_durum_byzance,triticum_durum_byzance
19,Casteldoux,is triticum_durum_casteldoux,triticum_durum_casteldoux
20,Catervo,is triticum_durum_catervo,triticum_durum_catervo
21,Cesare,is triticum_durum_cesare,triticum_durum_cesare
22,Chiara,is triticum_durum_chiara,triticum_durum_chiara
23,Chistera,is triticum_durum_chistera,triticum_durum_chistera
24,Claudio,is triticum_durum_claudio,triticum_durum_claudio
25,Clovis,is triticum_durum_clovis,triticum_durum_clovis
26,Coussur,is triticum_durum_coussur,triticum_durum_coussur
27,Cultur,is triticum_durum_cultur,triticum_durum_cultur
28,Dakter,is triticum_durum_dakter,triticum_durum_dakter
29,Daurur,is triticum_durum_daurur,triticum_durum_daurur
30,Duetto,is triticum_durum_duetto,triticum_durum_duetto
31,Durango,is triticum_durum_durango,triticum_durum_durango
32,Durasol,is triticum_durum_durasol,triticum_durum_durasol
33,Duriac,is triticum_durum_duriac,triticum_durum_duriac
34,Durobonus,is triticum_durum_durobonus,triticum_durum_durobonus
35,Excalibur,is triticum_durum_excalibur,triticum_durum_excalibur
36,Fabulis,is triticum_durum_fabulis,triticum_durum_fabulis
37,Floridou,is triticum_durum_floridou,triticum_durum_floridou
38,Gainsur,is triticum_durum_gainsur,triticum_durum_gainsur
39,Gibus,is triticum_durum_gibus,triticum_durum_gibus
40,Grazia,is triticum_durum_grazia,triticum_durum_grazia
102,Haristide,is triticum_durum_haristide,triticum_durum_haristide
41,Isildur,is triticum_durum_isildur,triticum_durum_isildur
42,Ismur,is triticum_durum_ismur,triticum_durum_ismur
43,Joyau,is triticum_durum_joyau,triticum_durum_joyau
44,Kanakis,is triticum_durum_kanakis,triticum_durum_kanakis
45,Karur,is triticum_durum_karur,triticum_durum_karur
46,Kheti,is triticum_durum_kheti,triticum_durum_kheti
47,Kombo,is triticum_durum_kombo,triticum_durum_kombo
48,Latinur,is triticum_durum_latinur,triticum_durum_latinur
49,Lemur,is triticum_durum_lemur,triticum_durum_lemur
50,Levante,is triticum_durum_levante,triticum_durum_levante
103,LG Boris,is triticum_durum_lg_boris,triticum_durum_lg_boris
51,Liberdur,is triticum_durum_liberdur,triticum_durum_liberdur
52,Lloyd,is triticum_durum_lloyd,triticum_durum_lloyd
53,Luminur,is triticum_durum_luminur,triticum_durum_luminur
54,Marakas,is triticum_durum_marakas,triticum_durum_marakas
55,Marco Aurelio,is triticum_durum_marco_aurelio,triticum_durum_marco_aurelio
56,Matt,is triticum_durum_matt,triticum_durum_matt
57,Memphis,is triticum_durum_memphis,triticum_durum_memphis
58,Miradoux,is triticum_durum_miradoux,triticum_durum_miradoux
59,Monastir,is triticum_durum_monastir,triticum_durum_monastir
60,Nautilur,is triticum_durum_nautilur,triticum_durum_nautilur
61,Nefer,is triticum_durum_nefer,triticum_durum_nefer
62,Nemesis,is triticum_durum_nemesis,triticum_durum_nemesis
63,Neodur,is triticum_durum_neodur,triticum_durum_neodur
64,Nicodur,is triticum_durum_nicodur,triticum_durum_nicodur
65,Nobilis,is triticum_durum_nobilis,triticum_durum_nobilis
66,Odisseo,is triticum_durum_odisseo,triticum_durum_odisseo
67,Orlu,is triticum_durum_orlu,triticum_durum_orlu
68,Orssur,is triticum_durum_orssur,triticum_durum_orssur
69,Paprika,is triticum_durum_paprika,triticum_durum_paprika
70,Pastadou,is triticum_durum_pastadou,triticum_durum_pastadou
71,Pastiflur,is triticum_durum_pastiflur,triticum_durum_pastiflur
72,Pescadou,is triticum_durum_pescadou,triticum_durum_pescadou
73,Pharaon,is triticum_durum_pharaon,triticum_durum_pharaon
74,Pictur,is triticum_durum_pictur,triticum_durum_pictur
75,Plussur,is triticum_durum_plussur,triticum_durum_plussur
76,Portodur,is triticum_durum_portodur,triticum_durum_portodur
77,Prospero,is triticum_durum_prospero,triticum_durum_prospero
78,Provenzal,is triticum_durum_provenzal,triticum_durum_provenzal
79,Qualidou,is triticum_durum_qualidou,triticum_durum_qualidou
80,Ramirez,is triticum_durum_ramirez,triticum_durum_ramirez
81,Relief,is triticum_durum_relief,triticum_durum_relief
82,RGT Albiozur,is triticum_durum_rgt_albiozur,triticum_durum_rgt_albiozur
83,RGT Fabionur,is triticum_durum_rgt_fabionur,triticum_durum_rgt_fabionur
104,RGT Fiertimur,is triticum_durum_rgt_fiertimur,triticum_durum_rgt_fiertimur
84,RGT Izaldur,is triticum_durum_rgt_izaldur,triticum_durum_rgt_izaldur
85,RGT Musclur,is triticum_durum_rgt_musclur,triticum_durum_rgt_musclur
86,RGT Nomur,is triticum_durum_rgt_nomur,triticum_durum_rgt_nomur
105,RGT Voilur,is triticum_durum_rgt_voilur,triticum_durum_rgt_voilur
87,Sachem,is triticum_durum_sachem,triticum_durum_sachem
106,Santur,is triticum_durum_santur,triticum_durum_santur
88,Saragolla,is triticum_durum_saragolla,triticum_durum_saragolla
89,Sculptur,is triticum_durum_sculptur,triticum_durum_sculptur
90,Sorriso,is triticum_durum_sorriso,triticum_durum_sorriso
91,Surmesur,is triticum_durum_surmesur,triticum_durum_surmesur
92,SY Banco,is triticum_durum_sy_banco,triticum_durum_sy_banco
93,SY Carma,is triticum_durum_sy_carma,triticum_durum_sy_carma
94,SY Cysco,is triticum_durum_sy_cysco,triticum_durum_sy_cysco
95,SY Esperto,is triticum_durum_sy_esperto,triticum_durum_sy_esperto
96,Tablur,is triticum_durum_tablur,triticum_durum_tablur
97,Tiziana,is triticum_durum_tiziana,triticum_durum_tiziana
107,Toscadou,is triticum_durum_toscadou,triticum_durum_toscadou
98,Virgilio,is triticum_durum_virgilio,triticum_durum_virgilio
99,Vivadur,is triticum_durum_vivadur,triticum_durum_vivadur
100,Yelodur,is triticum_durum_yelodur,triticum_durum_yelodur
0,Autres,is triticum_durum,triticum_durum
