code,label_fr,variety_request,variety,PRV
1,Variété sans mesure PRV,is castanea,castanea,false
2,Bantarde,is castanea_bantarde,castanea_bantarde,true
3,Bossue,is castanea_bossue,castanea_bossue,true
4,Bouchaud,is castanea_bouchaud,castanea_bouchaud,true
5,Grosse Nousillade,is castanea_grosse_nousillade,castanea_grosse_nousillade,true
6,Jaunan,is castanea_jaunan,castanea_jaunan,true
7,Marron de Veuil,is castanea_marron_de_veuil,castanea_marron_de_veuil,true
8,Nousillade,is castanea_nousillade,castanea_nousillade,true
9,Patouillette jaune,is castanea_patouille_jaune,castanea_patouille_jaune,true
10,Patouillette noire,is castanea_patouille_noire,castanea_patouille_noire,true
11,Pérote,is castanea_perote,castanea_perote,true
12,Pillemongin,is castanea_pillemongrin,castanea_pillemongrin,true
13,Pointue,is castanea_pointue,castanea_pointue,true
14,Rouillaud,is castanea_rouillaud,castanea_rouillaud,true
15,Saint-Michel,is castanea_saint_michel,castanea_saint_michel,true
16,Torse,is castanea_torse,castanea_torse,true
17,Vert-Josnon,is castanea_vert_josnon,castanea_vert_josnon,true
999,Autre variété avec mesure PRV,is castanea,castanea,true
