code,label_fr,variety_request,variety,PRV
1,Variété sans mesure PRV,is lepidium_sativum,lepidium_sativum,false
2,Cresson Blond du Pas de Calais,is lepidium_sativum_blond_du_pas_de_calais,lepidium_sativum_blond_du_pas_de_calais,true
999,Autre variété avec mesure PRV,is lepidium_sativum,lepidium_sativum,true
