code,label_fr,variety_request,variety,PRV
1,Variété sans mesure PRV,is malva_sylvestris,malva_sylvestris,false
2,Mauve du Nord,is malva_sylvestris_du_nord,malva_sylvestris_du_nord,true
999,Autre variété avec mesure PRV,is malva_sylvestris,malva_sylvestris,true
