code,label_fr,variety
1,aulne glutineux,alnus_glutinosa
2,bouleau verruqueux,betula_pendula
3,charme,carpinus
4,châtaignier,catanea
5,erable sycomore,acer_pseudoplatanus
6,espèce du genre peuplier,salicaceae
7,espèce du genre saule,salix
8,eucalyptus,eucalyptus
9,frêne commun,fraxinus_excelsior
10,merisier,prunus_avium
11,robinier faux-acacia,robinia_pseudoacacia
0,Autre,plant
