code,label_fr,variety_request,variety,PRV
1,Variété sans mesure PRV,is daucus_carota,daucus_carota,false
2,Carotte de Tiques,is daucus_carota_de_tiques,daucus_carota_de_tiques,true
999,Autre variété avec mesure PRV,is daucus_carota,daucus_carota,true
