code,label_fr,variety_request,variety,PRV
1,Variété sans mesure PRV,is phaseolus_vulgaris,phaseolus_vulgaris,false
2,Flageolet Blanc de Flandre,is phaseolus_vulgaris_blanc_de_flandre,phaseolus_vulgaris_blanc_de_flandre,true
3,Haricot flageolet vert : VERDELYS (nain),is phaseolus_vulgaris_verdelys,phaseolus_vulgaris_verdelys,true
4,Lingot (du Nord),is phaseolus_vulgaris_lingot,phaseolus_vulgaris_lingot,true
5,Princesse du Pélève,is phaseolus_vulgaris_princesse_du_peleve,phaseolus_vulgaris_princesse_du_peleve,true
999,Autre variété avec mesure PRV,is phaseolus_vulgaris,phaseolus_vulgaris,true
