code,label_fr,variety_request,variety,PRV
1,Variété sans mesure PRV,is prunus_domestica,prunus_domestica,false
369,Abricotée jaune,is prunus_domestica_abricotee_jaune,prunus_domestica_abricotee_jaune,true
370,Amarblanc Amarouge,is prunus_domestica_amarblanc_amarouge,prunus_domestica_amarblanc_amarouge,true
371,Balosse,is prunus_domestica_balosse,prunus_domestica_balosse,true
372,Belle de Louvain,is prunus_domestica_belle_de_louvain,prunus_domestica_belle_de_louvain,true
373,Blanche d'Espagne molle,is prunus_domestica_blanche_d_espagne_molle,prunus_domestica_blanche_d_espagne_molle,true
374,Coe violette,is prunus_domestica_coe_violette,prunus_domestica_coe_violette,true
375,Datim,is prunus_domestica_datil,prunus_domestica_datil,true
376,Ente Jaune ou P.d'Agen Blanche,is prunus_domestica_ente_jaune_ou_p_d_agen_blanche,prunus_domestica_ente_jaune_ou_p_d_agen_blanche,true
377,Floyon,is prunus_domestica_floyon,prunus_domestica_floyon,true
378,Genre reine Claude verte tardive,is prunus_domestica_genre_reine_claude_verte_tardive,prunus_domestica_genre_reine_claude_verte_tardive,true
379,Goutte d'or de Coe,is prunus_domestica_goutte_d_or_de_coe,prunus_domestica_goutte_d_or_de_coe,true
380,Grosse bleue de fin septembre,is prunus_domestica_grosse_bleue_de_fin_septembre,prunus_domestica_grosse_bleue_de_fin_septembre,true
381,Madeleine,is prunus_domestica_madeleine,prunus_domestica_madeleine,true
382,Marcarrière ou Datte,is prunus_domestica_marcarriere_ou_datte,prunus_domestica_marcarriere_ou_datte,true
383,Marie Jouveneau,is prunus_domestica_marie_jouveneau,prunus_domestica_marie_jouveneau,true
384,Mariolet,is prunus_domestica_mariolet,prunus_domestica_mariolet,true
385,Monsieur hâtif,is prunus_domestica_monsieur_hatif,prunus_domestica_monsieur_hatif,true
386,Monsieur violet Musquette,is prunus_domestica_monsieur_violet_musquette,prunus_domestica_monsieur_violet_musquette,true
387,Noberte,is prunus_domestica_noberte,prunus_domestica_noberte,true
388,Perdrigon,is prunus_domestica_perdrigon,prunus_domestica_perdrigon,true
389,Prune de Saint-Antonin,is prunus_domestica_prune_de_saint_antonin,prunus_domestica_prune_de_saint_antonin,true
390,Reine Claude brune,is prunus_domestica_reine_claude_brune,prunus_domestica_reine_claude_brune,true
391,Reine Claude d'Althan (Conducta),is prunus_domestica_reine_claude_d_althan_conducta,prunus_domestica_reine_claude_d_althan_conducta,true
392,Reine Claude de Bavay,is prunus_domestica_reine_claude_de_bavay,prunus_domestica_reine_claude_de_bavay,true
393,Reine Claude dorée,is prunus_domestica_reine_claude_doree,prunus_domestica_reine_claude_doree,true
394,Reine Claude d'Oulins,is prunus_domestica_reine_claude_d_oulins,prunus_domestica_reine_claude_d_oulins,true
395,Reine Claude Rouge,is prunus_domestica_reine_claude_rouge,prunus_domestica_reine_claude_rouge,true
396,Reine Claude rouge hâtive,is prunus_domestica_reine_claude_rouge_hative,prunus_domestica_reine_claude_rouge_hative,true
397,Reine-Claude d'Oullins,is prunus_domestica_reine_claude_d_oullins,prunus_domestica_reine_claude_d_oullins,true
398,Saint Léonard,is prunus_domestica_saint_leonard,prunus_domestica_saint_leonard,true
399,Sainte-Catherine,is prunus_domestica_sainte_catherine,prunus_domestica_sainte_catherine,true
400,Sanguine de Wismes,is prunus_domestica_sanguine_de_wismes,prunus_domestica_sanguine_de_wismes,true
401,Ste Catherine,is prunus_domestica_ste_catherine,prunus_domestica_ste_catherine,true
999,Autre variété avec mesure PRV,is prunus_domestica,prunus_domestica,true
